<svg xmlns="http://www.w3.org/2000/svg" width="900" height="600" viewBox="0 0 3 2">
<path fill="#ce1126" d="M0 0h3v2H0z"/>
<path fill="#fcd116" d="M0 0h2v2H0z"/>
<path fill="#002b7f" d="M0 0h1v2H0z"/>
</svg>
