<?xml version="1.0" encoding="UTF-8"?>
<svg xmlns="http://www.w3.org/2000/svg" xmlns:xlink="http://www.w3.org/1999/xlink" width="900" height="600" viewBox="0 0 975 650">
<defs>
<polygon id="pt" points="-0.1624598481164531,0 0,-0.5 0.1624598481164531,0" transform="scale(0.0616)" fill="#fff"/>
<g id="star">
<use xlink:href="#pt" transform="rotate(-144)"/>
<use xlink:href="#pt" transform="rotate(-72)"/>
<use xlink:href="#pt"/>
<use xlink:href="#pt" transform="rotate(72)"/>
<use xlink:href="#pt" transform="rotate(144)"/>
</g>
<g id="s5">
<use xlink:href="#star" x="-0.232"/>
<use xlink:href="#star" x="-0.116"/>
<use xlink:href="#star"/>
<use xlink:href="#star" x="0.116"/>
<use xlink:href="#star" x="0.232"/>
</g>
<g id="s6">
<use xlink:href="#s5" x="-0.058"/>
<use xlink:href="#star" x="0.29"/>
</g>
<g id="x4">
<use xlink:href="#s6"/>
<use xlink:href="#s5" y="0.054"/>
<use xlink:href="#s6" y="0.108"/>
<use xlink:href="#s5" y="0.162"/>
</g>
<g id="u">
<use xlink:href="#x4" y="-0.216"/>
<use xlink:href="#x4"/>
<use xlink:href="#s6" y="0.216"/>
</g>
<rect id="stripe" width="975" height="50" fill="#BB133E"/>
</defs>
<rect width="975" height="650" fill="#FFF"/>
<use xlink:href="#stripe"/>
<use xlink:href="#stripe" y="100"/>
<use xlink:href="#stripe" y="200"/>
<use xlink:href="#stripe" y="300"/>
<use xlink:href="#stripe" y="400"/>
<use xlink:href="#stripe" y="500"/>
<use xlink:href="#stripe" y="600"/>
<rect width="440" height="350" fill="#002664"/>
<use xlink:href="#u" transform="translate(219,176) scale(650)"/>
</svg>
