Nom,prix,adherent
Scie sauteuse,1.5,5
Perforateur,3.5,20
Réchaud à gaz pour paella,4.0,23
Machine à coudre,2.5,30
Défonceuse,3.0,15
Débroussailleuse,5.0,14
Motobineuse,5.5,13
Nettoyeur haute pression,5.0,11
Poste à souder,11,15
