isrc,created_at,updated_at,song,artist,length,description
FRZ048400001   ,2020-10-25 21:02:31.975007,,4a2d1125-e5fb-3f3d-a92d-193c84d87b28,385966f0-b912-4755-bad6-4780ebf3f4cd,256399,
FRZ048400070   ,2020-10-25 21:02:32.08978,,fff87f3e-a4ff-3940-b271-cd3f37c146c8,385966f0-b912-4755-bad6-4780ebf3f4cd,243906,
FRZ048400080   ,2020-10-25 21:02:32.172004,,5d5c0ccf-2ee7-4e58-8338-5f7bb64734c3,385966f0-b912-4755-bad6-4780ebf3f4cd,305893,
FRZ048400090   ,2020-10-25 21:02:32.342297,,315b7ad3-5060-4f53-9a3a-1d2660aa5262,385966f0-b912-4755-bad6-4780ebf3f4cd,212133,
FRZ028202060   ,2020-10-24 08:09:37.604336,2020-10-24 09:25:40.385248,dfa23f21-a84f-4994-bf9e-5852df4823c0,de1edf40-2b3d-4ddd-873c-e4f59585ba92,286133,live
10             ,2020-10-25 21:06:16.489838,,c9738b66-4644-4099-a458-ae07a19ae448,1598ccda-b164-4bff-9821-f9ff5a8587a8,220000,
FRZ048400100   ,2020-10-25 21:02:32.538396,,41804761-225a-49a4-af6b-daa10aadf2da,385966f0-b912-4755-bad6-4780ebf3f4cd,272506,
FRZ048400110   ,2020-10-25 21:02:32.621136,,ac5a7acc-2c2e-365d-884b-d2d65514a990,385966f0-b912-4755-bad6-4780ebf3f4cd,223333,
FRZ017301540   ,2020-10-25 21:06:15.2382,,3d453af5-9828-4bd4-91b5-57d6882114e8,1598ccda-b164-4bff-9821-f9ff5a8587a8,248000,
FRZ028301490   ,2020-10-24 08:24:04.987116,2020-10-24 09:02:16.398454,e132e110-29db-34ce-94a3-26f836425591,de1edf40-2b3d-4ddd-873c-e4f59585ba92,265000,""
FRZ028302060   ,2020-10-24 08:24:05.153228,2020-10-24 09:02:16.431422,f0c79c69-7cfc-3a06-80bf-5c184c333a5c,de1edf40-2b3d-4ddd-873c-e4f59585ba92,255133,""
FRZ028301500   ,2020-10-24 08:24:05.595158,2020-10-24 09:02:16.458014,fd8c6c2a-ba2d-36b5-a9cf-dc4faf2cd77f,de1edf40-2b3d-4ddd-873c-e4f59585ba92,197626,""
FRZ028301510   ,2020-10-24 08:24:05.711449,2020-10-24 09:02:16.49136,ece9f5c9-1330-36cf-9c7d-117b3b330e17,de1edf40-2b3d-4ddd-873c-e4f59585ba92,372200,""
FRZ028301520   ,2020-10-24 08:24:05.840579,2020-10-24 09:02:16.52017,3573502d-40dd-3fd9-8be9-2a9fe7f44a39,de1edf40-2b3d-4ddd-873c-e4f59585ba92,309906,""
FRZ028201740   ,2020-10-24 08:09:37.748591,2020-10-24 09:25:40.669265,22354175-400e-4f7b-ab14-64af17b11eeb,de1edf40-2b3d-4ddd-873c-e4f59585ba92,263560,live
FRZ028301560   ,2020-10-24 08:24:05.996722,2020-10-24 09:02:16.549446,5a8ea7cf-e15e-31e5-a834-ce4531581c29,de1edf40-2b3d-4ddd-873c-e4f59585ba92,184800,""
FRZ028301530   ,2020-10-24 08:24:06.360809,2020-10-24 09:02:16.600896,c2d5ce98-1011-3033-b88e-a96f5429d3d4,de1edf40-2b3d-4ddd-873c-e4f59585ba92,223600,""
FRZ028301540   ,2020-10-24 08:24:06.49408,2020-10-24 09:02:16.628402,4f10eea9-8708-37c7-928b-9d77a13d40e4,de1edf40-2b3d-4ddd-873c-e4f59585ba92,228320,""
FRZ028301550   ,2020-10-24 08:24:06.63394,2020-10-24 09:02:16.655637,c4de5929-a48e-3752-b0d7-c877019dc504,de1edf40-2b3d-4ddd-873c-e4f59585ba92,327840,""
FRZ028202040   ,2020-10-24 08:09:36.553312,2020-10-24 09:25:39.536872,0a1dba38-bf24-48b9-8a64-3926d8b3ac35,de1edf40-2b3d-4ddd-873c-e4f59585ba92,290240,live
8              ,2020-10-24 08:09:37.685472,2020-10-25 21:06:16.282564,677d2724-2106-45e1-b9f3-62c4a77dc252,de1edf40-2b3d-4ddd-873c-e4f59585ba92,190000,
FRZ028202050   ,2020-10-24 08:09:36.711619,2020-10-24 09:25:39.749873,cb6a1239-5531-4ba7-953f-5abb9a2530c1,de1edf40-2b3d-4ddd-873c-e4f59585ba92,290426,live
FRZ028202480   ,2020-10-24 08:09:36.789746,2020-10-24 09:25:39.909844,c0fd1089-368a-3b3d-a7e8-1227a1d89bc2,de1edf40-2b3d-4ddd-873c-e4f59585ba92,239040,live
4              ,2020-10-24 08:24:05.963962,2020-10-24 09:02:01.617698,eea88d4e-1ec3-4e87-94ea-ad0a106dbb5e,de1edf40-2b3d-4ddd-873c-e4f59585ba92,193773,""
FRZ028202390   ,2020-10-24 08:14:22.678712,2020-10-24 09:25:40.736061,d130df91-c170-4c0d-b66e-82acb6202dda,de1edf40-2b3d-4ddd-873c-e4f59585ba92,269893,live
FRZ028202070   ,2020-10-24 08:14:22.739045,2020-10-24 09:25:40.862906,ba8d4ddc-06a6-3b20-8f15-fbf836c64490,de1edf40-2b3d-4ddd-873c-e4f59585ba92,172333,live
FRZ028202080   ,2020-10-24 08:14:22.772967,2020-10-24 09:25:40.989235,411b1953-0556-48a5-97b5-93008ab525a6,de1edf40-2b3d-4ddd-873c-e4f59585ba92,380840,live
FRZ028202090   ,2020-10-24 08:14:22.805693,2020-10-24 09:25:41.054445,0e30d5e6-1cba-45f6-a2b8-16c63119af43,de1edf40-2b3d-4ddd-873c-e4f59585ba92,286733,live
FRZ028202380   ,2020-10-24 08:14:22.849256,2020-10-24 09:25:41.156628,0437b807-ec81-406e-9bf8-af062f220d03,de1edf40-2b3d-4ddd-873c-e4f59585ba92,244320,live
FRZ027800060   ,2020-10-24 08:24:06.632523,2020-10-24 09:02:21.687619,255d640a-711e-4841-bd57-c51a9ddefcfa,de1edf40-2b3d-4ddd-873c-e4f59585ba92,252266,""
FRZ027800070   ,2020-10-24 08:24:06.803386,2020-10-24 09:02:21.719794,191b30fa-a9c6-437d-b43d-21b0e78da22d,de1edf40-2b3d-4ddd-873c-e4f59585ba92,237107,""
FRZ028000280   ,2020-10-24 08:24:05.015659,2020-10-24 09:02:11.780881,b410169f-7ec1-311a-8fa0-672b9e710ce4,de1edf40-2b3d-4ddd-873c-e4f59585ba92,198306,""
FRZ028000600   ,2020-10-24 08:24:05.242521,2020-10-24 09:02:11.803824,cb6a1239-5531-4ba7-953f-5abb9a2530c1,de1edf40-2b3d-4ddd-873c-e4f59585ba92,227293,""
FRZ028000170   ,2020-10-24 08:24:05.643938,2020-10-24 09:02:11.832068,a80332cd-3313-3c08-95bc-7717fe8b9e4c,de1edf40-2b3d-4ddd-873c-e4f59585ba92,365426,""
FRZ028000240   ,2020-10-24 08:24:05.742684,2020-10-24 09:02:11.851563,ba8d4ddc-06a6-3b20-8f15-fbf836c64490,de1edf40-2b3d-4ddd-873c-e4f59585ba92,164146,""
FRZ027700600   ,2020-10-24 08:24:05.866371,2020-10-24 09:02:11.880778,0a1dba38-bf24-48b9-8a64-3926d8b3ac35,de1edf40-2b3d-4ddd-873c-e4f59585ba92,185973,""
FRZ028000270   ,2020-10-24 08:24:06.024138,2020-10-24 09:02:11.910503,b80a6adb-1876-4057-8c20-8e57d355ddee,de1edf40-2b3d-4ddd-873c-e4f59585ba92,200933,""
FRZ028000210   ,2020-10-24 08:24:06.363832,2020-10-24 09:02:11.935763,ecfd503d-63fe-4efc-a09e-f640ea029ffe,de1edf40-2b3d-4ddd-873c-e4f59585ba92,330533,""
FRZ028000020   ,2020-10-24 08:24:06.525146,2020-10-24 09:02:11.963659,b0db9a81-9d22-4a13-b797-c9c33ef2c574,de1edf40-2b3d-4ddd-873c-e4f59585ba92,248880,""
FRZ028000290   ,2020-10-24 08:24:06.663205,2020-10-24 09:02:11.991892,677d2724-2106-45e1-b9f3-62c4a77dc252,de1edf40-2b3d-4ddd-873c-e4f59585ba92,188306,""
FRZ028000620   ,2020-10-24 08:24:06.80689,2020-10-24 09:02:12.019945,fa49fc16-b13d-4590-af6c-0c6503039f30,de1edf40-2b3d-4ddd-873c-e4f59585ba92,199933,""
FRZ028302250   ,2020-10-24 08:24:06.801739,2020-10-24 09:02:16.676913,e0e9474d-20a5-3d18-ad5e-7995e93fc810,de1edf40-2b3d-4ddd-873c-e4f59585ba92,264893,""
FRZ027700300   ,2020-10-24 08:24:04.95868,2020-10-24 09:02:21.401296,5b5289e3-c070-477b-8c56-f8fbe69a9b5d,de1edf40-2b3d-4ddd-873c-e4f59585ba92,211360,""
FRZ027900360   ,2020-10-24 08:24:05.145199,2020-10-24 09:02:21.438457,e823e756-b03f-438e-9d04-b32a8cd3135a,de1edf40-2b3d-4ddd-873c-e4f59585ba92,197186,""
FRZ027800020   ,2020-10-24 08:24:05.572442,2020-10-24 09:02:21.47004,98516743-e5d8-4813-8f16-915d1b48ee77,de1edf40-2b3d-4ddd-873c-e4f59585ba92,223733,""
FRZ027800030   ,2020-10-24 08:24:05.660955,2020-10-24 09:02:21.502537,38f8e014-e69a-48c1-865e-b62244f46e40,de1edf40-2b3d-4ddd-873c-e4f59585ba92,147800,""
FRZ027800040   ,2020-10-24 08:24:05.840105,2020-10-24 09:02:21.548722,c2c6167a-b57c-4518-bfac-38c31aae12ba,de1edf40-2b3d-4ddd-873c-e4f59585ba92,217200,""
FRZ027900380   ,2020-10-24 08:24:04.958594,2020-10-24 09:02:21.582266,b7fc10fc-787e-4f1f-bcb9-618652503fad,de1edf40-2b3d-4ddd-873c-e4f59585ba92,249266,""
FRZ027800050   ,2020-10-24 08:24:06.195822,2020-10-24 09:02:21.619267,e8234067-da94-4763-85a0-b6f869b8306a,de1edf40-2b3d-4ddd-873c-e4f59585ba92,177240,""
FRZ027900630   ,2020-10-24 08:24:05.15005,2020-10-24 09:02:21.655059,38147616-c506-4147-88bb-359b0375bcc6,de1edf40-2b3d-4ddd-873c-e4f59585ba92,173573,""
FRZ028000220   ,2020-10-24 08:24:04.960064,2020-10-24 09:02:26.391465,7a825aed-7383-49e8-b4ff-50397494065d,de1edf40-2b3d-4ddd-873c-e4f59585ba92,165466,""
FRZ028000770   ,2020-10-24 08:24:05.146072,2020-10-24 09:02:26.436458,a92060b0-1449-401b-bf26-a2ede44e69d5,de1edf40-2b3d-4ddd-873c-e4f59585ba92,162240,""
9              ,2020-10-25 21:06:16.391937,,f245b951-4e94-402d-bd9d-de651fbe688b,1598ccda-b164-4bff-9821-f9ff5a8587a8,194000,
FRZ028202100   ,2020-10-24 08:14:23.166229,2020-10-24 09:25:41.296357,49551944-af2e-4242-bda2-2be23b2bb2e8,de1edf40-2b3d-4ddd-873c-e4f59585ba92,199253,live
FRZ028202500   ,2020-10-24 08:14:23.214126,2020-10-24 09:25:41.385818,5046b18f-9326-4613-a94a-90576baec603,de1edf40-2b3d-4ddd-873c-e4f59585ba92,178840,live
FRZ028200860   ,2020-10-24 08:14:23.307036,2020-10-24 09:25:41.457893,a80332cd-3313-3c08-95bc-7717fe8b9e4c,de1edf40-2b3d-4ddd-873c-e4f59585ba92,459160,live
FRZ048400040   ,2020-10-25 21:02:31.048474,,61661e09-774d-3926-8ddb-23180b33bed1,385966f0-b912-4755-bad6-4780ebf3f4cd,252200,
FRZ048400050   ,2020-10-25 21:02:31.686977,,dbad1797-7106-3e4a-ba5d-0e8fb70cf0e1,385966f0-b912-4755-bad6-4780ebf3f4cd,213533,
FRZ048400060   ,2020-10-25 21:02:31.891195,,fae0f4b8-f12f-4e38-8799-56d88578c56e,385966f0-b912-4755-bad6-4780ebf3f4cd,229226,
1              ,2020-10-24 08:24:05.621535,2020-10-25 21:06:15.434777,cb6a1239-5531-4ba7-953f-5abb9a2530c1,de1edf40-2b3d-4ddd-873c-e4f59585ba92,242000,
2              ,2020-10-25 21:06:15.490363,,ab0ee3d5-abfa-46f2-9633-9b389d1e0b15,1598ccda-b164-4bff-9821-f9ff5a8587a8,230000,cover
FRZ017301580   ,2020-10-25 21:06:15.534546,,b4de4c55-61f1-3ff5-92e5-d8149fa800e3,1598ccda-b164-4bff-9821-f9ff5a8587a8,235000,
FRZ017301510   ,2020-10-25 21:06:15.621525,,6bd014a5-ae92-4039-a338-e356fa96497f,1598ccda-b164-4bff-9821-f9ff5a8587a8,244933,
FRZ028202490   ,2020-10-24 08:09:37.232567,2020-10-24 09:25:40.026798,6291b061-dc2d-3ba6-95f1-9f0c88d10085,de1edf40-2b3d-4ddd-873c-e4f59585ba92,216800,live
FRZ028202440   ,2020-10-24 08:09:37.358494,2020-10-24 09:25:40.114037,38147616-c506-4147-88bb-359b0375bcc6,de1edf40-2b3d-4ddd-873c-e4f59585ba92,175666,live
5              ,2020-10-24 08:09:37.449523,2020-10-25 21:06:15.687386,eea88d4e-1ec3-4e87-94ea-ad0a106dbb5e,de1edf40-2b3d-4ddd-873c-e4f59585ba92,185000,
FRZ028201970   ,2020-10-24 08:09:37.513375,2020-10-24 09:25:40.315781,8fd3c7ba-4d09-4e8a-9665-00ff220886aa,de1edf40-2b3d-4ddd-873c-e4f59585ba92,252066,live
FRZ017301530   ,2020-10-25 21:06:16.123964,,f264d03f-7b7c-3f27-a1ff-789663cb093d,1598ccda-b164-4bff-9821-f9ff5a8587a8,177000,
FRZ017301590   ,2020-10-25 21:06:16.184659,,565ae95b-af8a-4a2a-9730-dcb9a5012601,1598ccda-b164-4bff-9821-f9ff5a8587a8,209000,
FRZ018000290   ,2020-10-25 21:20:26.563667,,b0bb7049-2e9a-4e40-a848-4e2bdb410baa,2caf1462-9be7-4603-8090-3c511e846fa5,259880,
FRZ018000330   ,2020-10-25 21:20:26.579228,,5117151e-f542-4c5b-b686-2316ba6590e5,2caf1462-9be7-4603-8090-3c511e846fa5,161960,
FRZ018000340   ,2020-10-25 21:20:26.598561,,999b0a70-ac82-4190-9f86-64629710aa2e,2caf1462-9be7-4603-8090-3c511e846fa5,269533,
FRZ018000940   ,2020-10-25 21:20:26.659055,,b056bc09-95dc-432f-a09b-496a1301066c,2caf1462-9be7-4603-8090-3c511e846fa5,315813,
FRZ018000730   ,2020-10-25 21:20:26.687971,,6a54b62a-e659-4c2b-9382-b083f7fcb649,2caf1462-9be7-4603-8090-3c511e846fa5,258466,
FRZ018000310   ,2020-10-25 21:20:26.699888,,3e97775b-2ecd-4955-85ae-29f70bb8e366,2caf1462-9be7-4603-8090-3c511e846fa5,233706,
FRZ018000300   ,2020-10-25 21:20:26.67407,2020-10-25 21:20:30.82884,7f75664a-a668-4da1-9f63-f48d2d22de6d,2caf1462-9be7-4603-8090-3c511e846fa5,286880,
FRZ018000320   ,2020-10-25 21:20:26.714625,,04a82bcb-5151-4f34-9556-c2d00e95d2f2,2caf1462-9be7-4603-8090-3c511e846fa5,211680,
FRZ018401160   ,2020-10-25 21:20:35.865092,,126d7d8a-6ab1-4300-b01c-ae7659cf0532,2caf1462-9be7-4603-8090-3c511e846fa5,243173,
FRZ018500620   ,2020-10-25 21:20:40.882268,,f4ca4551-b129-3b4b-94a1-bc9d4277d9d7,2caf1462-9be7-4603-8090-3c511e846fa5,285026,
FRZ018200890   ,2020-10-25 21:20:46.173457,,d1b891ff-3ff6-48ea-8634-e73d81a087ff,2caf1462-9be7-4603-8090-3c511e846fa5,215293,
FRZ018500660   ,2020-10-25 21:20:56.09314,,ac412a92-6585-34a0-af92-8d56b9d1a212,2caf1462-9be7-4603-8090-3c511e846fa5,336000,
FRZ018500200   ,2020-10-25 21:20:50.926302,2020-10-25 21:20:56.106348,89022287-ae02-3cde-abc7-b3dd2aa2d3a8,2caf1462-9be7-4603-8090-3c511e846fa5,306600,
FRZ018000350   ,2020-10-25 21:20:26.732065,,bd46668e-6814-45fd-a2d6-932b9e6d545b,2caf1462-9be7-4603-8090-3c511e846fa5,320000,
FRZ018000280   ,2020-10-25 21:20:26.524099,2020-10-25 21:20:30.815973,7c97df36-c718-4629-9332-cc957f249dd8,2caf1462-9be7-4603-8090-3c511e846fa5,248013,
FRZ018401170   ,2020-10-25 21:20:35.880047,,5a523eab-477f-42df-a9e6-0abcd5dd0cb7,2caf1462-9be7-4603-8090-3c511e846fa5,242920,
FRZ018501000   ,2020-10-25 21:20:40.866427,,53cb1b18-c605-3673-9179-42f766b15754,2caf1462-9be7-4603-8090-3c511e846fa5,262026,
FRZ018200880   ,2020-10-25 21:20:46.192977,,6ba761e5-aa77-44bc-9a0e-3621c6de9929,2caf1462-9be7-4603-8090-3c511e846fa5,201333,
FRZ018500210   ,2020-10-25 21:20:50.912955,2020-10-25 21:20:56.12575,f3f1c504-985c-3dc2-ab1c-eafd7dcdc442,2caf1462-9be7-4603-8090-3c511e846fa5,260400,
